DateTime,StationPressure,MeanSeaLevelPressure,AirTemperature,DewPoint,LandVisibility,WindDirection,WindSpeed,Rainfall,Rainfall24Hr
11/29/2019 10:00:00,985.4,1016.79,24.4,19.1,10.0,0.0,0.0,0.0,0.0
11/29/2019 10:00:00,852.42,1015.61,17.7,14.4,8.0,0.0,0.0,0.0,0.0
11/29/2019 10:00:00,973.12,1017.38,24.3,17.7,10.0,20.0,5.6,0.0,0.0
11/29/2019 10:00:00,971.28,1017.49,24.2,18.0,15.0,0.0,0.0,0.0,0.0
11/29/2019 10:00:00,979.62,1017.61,26.0,18.8,12.0,0.0,0.0,0.0,0.0
11/29/2019 10:00:00,970.4,1015.97,25.0,19.4,12.0,300.0,5.6,0.0,0.0
11/29/2019 10:00:00,991.48,1018.47,26.5,18.7,10.0,0.0,0.0,0.0,0.0
11/29/2019 10:00:00,994.02,1015.74,29.5,19.7,11.0,50.0,3.7,0.0,0.0
11/29/2019 10:00:00,991.88,1016.47,23.0,19.9,8.0,0.0,0.0,0.0,0.0
11/29/2019 10:00:00,982.04,1016.75,27.2,19.0,10.0,90.0,5.6,0.0,0.0
11/29/2019 10:00:00,989.44,1017.13,27.5,20.2,10.0,0.0,0.0,0.0,0.0
11/29/2019 10:00:00,982.73,1016.64,25.9,18.9,12.0,0.0,0.0,0.0,0.0
11/29/2019 10:00:00,997.63,1016.21,28.0,19.6,7.0,0.0,0.0,0.0,0.0
11/29/2019 10:00:00,994.53,1017.56,26.8,18.7,10.0,0.0,0.0,0.0,0.0
11/29/2019 10:00:00,987.28,1017.45,26.5,19.4,12.0,0.0,0.0,0.0,0.0
11/29/2019 10:00:00,980.8,1016.46,27.6,19.3,8.0,0.0,0.0,0.0,0.0
11/29/2019 10:00:00,987.54,1017.57,26.3,16.6,10.0,100.0,11.1,0.0,0.0
11/29/2019 10:00:00,1009.14,1016.47,28.7,18.2,9.0,0.0,0.0,0.0,0.0
11/29/2019 10:00:00,997.61,1017.66,27.7,15.8,8.0,50.0,7.4,0.0,0.0
11/29/2019 10:00:00,988.81,1017.71,27.2,15.6,12.0,130.0,9.3,0.0,0.0
11/29/2019 10:00:00,997.39,1017.76,27.0,15.5,15.0,50.0,7.4,0.0,0.0
11/29/2019 10:00:00,995.49,1017.5,26.0,16.2,12.0,100.0,5.6,0.0,0.0
11/29/2019 10:00:00,997.63,1017.44,25.0,16.7,10.0,0.0,0.0,0.0,0.0
11/29/2019 10:00:00,1000.84,1017.69,28.0,16.0,13.0,40.0,7.4,0.0,0.0
11/29/2019 10:00:00,1000.34,1017.9,27.5,16.8,12.0,50.0,3.7,0.0,0.0
11/29/2019 10:00:00,1010.34,1016.16,28.0,20.4,10.0,0.0,0.0,0.0,0.0
11/29/2019 10:00:00,1010.13,1016.37,27.5,20.4,8.0,0.0,0.0,0.0,0.0
11/29/2019 10:00:00,1001.23,1017.78,28.0,15.2,12.0,360.0,7.4,0.0,0.0
11/29/2019 10:00:00,991.55,1013.9,28.5,18.7,10.0,60.0,7.4,0.0,0.0
11/29/2019 10:00:00,1002.24,1016.66,29.0,20.2,7.0,80.0,5.6,0.0,0.0
11/29/2019 10:00:00,999.41,1015.75,30.2,19.2,8.0,0.0,0.0,0.0,0.0
11/29/2019 10:00:00,1010.93,1016.15,30.0,18.4,10.0,130.0,7.4,0.0,0.0
11/29/2019 10:00:00,1001.91,1015.13,29.0,16.1,12.0,10.0,5.6,0.0,0.0
11/29/2019 10:00:00,1006.98,1016.3,29.9,19.5,12.0,0.0,0.0,0.0,0.0
11/29/2019 10:00:00,994.09,1015.93,27.5,17.5,8.0,360.0,9.3,0.0,0.0
11/29/2019 10:00:00,999.39,1017.0,28.0,18.3,10.0,10.0,5.6,0.0,0.0
11/29/2019 10:00:00,1000.52,1016.49,27.2,20.3,11.0,40.0,5.6,0.0,0.0
11/29/2019 10:00:00,997.34,1016.4,26.9,17.2,10.0,30.0,5.6,0.0,0.0
11/29/2019 10:00:00,963.43,1015.07,25.6,19.2,10.0,0.0,0.0,0.0,0.0
11/29/2019 10:00:00,1012.19,1016.15,29.5,18.7,4.0,260.0,3.7,0.0,0.0
11/29/2019 10:00:00,920.51,1015.79,23.6,17.3,8.0,70.0,7.4,0.0,0.0
11/29/2019 10:00:00,1000.6,1016.78,26.3,17.9,10.0,40.0,14.8,0.0,0.0
11/29/2019 10:00:00,1012.41,1016.44,30.5,18.2,10.0,70.0,9.3,0.0,0.0
11/29/2019 10:00:00,1006.02,1016.7,29.7,19.4,10.0,90.0,9.3,0.0,0.0
11/29/2019 10:00:00,1014.3,1016.22,30.0,17.4,12.0,40.0,9.3,0.0,0.0
11/29/2019 10:00:00,995.58,1016.63,27.1,15.7,10.0,60.0,18.5,0.0,0.0
11/29/2019 10:00:00,998.58,1016.38,27.5,17.1,10.0,50.0,25.9,0.0,0.0
11/29/2019 10:00:00,1000.0,1016.27,27.7,17.2,10.0,50.0,16.7,0.0,0.0
11/29/2019 10:00:00,1001.43,1015.54,27.9,18.9,10.0,10.0,9.3,0.0,0.0
11/29/2019 10:00:00,1000.55,1015.47,27.8,20.0,10.0,340.0,3.7,0.0,0.0
11/29/2019 10:00:00,1001.53,1016.3,27.8,19.7,10.0,40.0,16.7,0.0,0.0
11/29/2019 10:00:00,1012.89,1015.91,29.6,17.5,8.0,0,0.0,0.0,0.0
11/29/2019 10:00:00,1007.71,1015.65,30.3,18.5,10.0,40.0,13.0,0.0,0.0
11/29/2019 10:00:00,1014.28,1015.4,27.7,18.8,9.0,50.0,27.8,0.0,0.0
11/29/2019 10:00:00,1001.63,1016.42,27.7,20.9,8.0,10.0,7.4,0.0,0.0
11/29/2019 10:00:00,879.01,1014.59,20.5,16.0,7.0,40.0,7.4,0.0,0.0
11/29/2019 10:00:00,1009.87,1015.75,29.6,17.7,10.0,60.0,20.4,0.0,0.0
11/29/2019 10:00:00,1013.96,1014.77,29.8,21.6,9.0,30.0,7.4,0.0,0.0
11/29/2019 10:00:00,1013.78,1014.23,29.0,19.9,10.0,120.0,14.8,0.0,0.0
11/29/2019 10:00:00,1004.09,1015.35,30.6,18.9,8.0,0.0,0.0,0.0,0.0
11/29/2019 10:00:00,1014.63,1015.64,29.0,18.2,7.0,60.0,11.1,0.0,0.0
11/29/2019 10:00:00,1013.82,1015.65,29.1,17.2,9.0,80.0,7.4,0.0,0.0
11/29/2019 10:00:00,1014.65,1015.42,30.0,21.0,11.0,0.0,0.0,0.0,0.0
11/29/2019 10:00:00,1014.15,1014.86,28.0,19.6,10.0,60.0,9.3,0.0,0.0
11/29/2019 10:00:00,1013.6,1014.3,30.5,19.2,10.0,40.0,9.3,0.0,0.0
11/29/2019 10:00:00,995.35,1016.77,26.1,18.0,12.0,70.0,14.8,0.0,0.0
11/29/2019 10:00:00,999.13,1015.97,27.5,18.1,9.0,50.0,9.3,0.0,0.0
11/29/2019 10:00:00,999.96,1016.5,27.7,19.2,9.0,40.0,18.5,0.0,0.0
11/29/2019 10:00:00,993.94,1015.95,27.5,18.8,10.0,60.0,18.5,0.0,0.0
11/29/2019 10:00:00,972.19,1016.04,25.4,16.7,10.0,60.0,25.9,0.0,0.0
11/29/2019 10:00:00,995.0,1015.7,27.6,18.9,12.0,30.0,11.1,0.0,0.0
11/29/2019 10:00:00,996.44,1017.41,27.8,19.8,10.0,40.0,27.8,0.0,0.0
11/29/2019 10:00:00,1014.15,1014.58,28.0,20.6,10.0,0,0.0,0.0,0.0
11/29/2019 10:00:00,1012.82,1014.24,28.2,19.3,11.0,90.0,5.6,0.0,0.0
11/29/2019 10:00:00,1008.82,1013.72,30.9,20.7,10.0,60.0,7.4,0.0,0.0
11/29/2019 10:00:00,1011.9,1015.19,30.0,18.4,8.0,0.0,0.0,0.0,0.0
11/29/2019 10:00:00,1014.25,1015.36,29.5,20.1,10.0,350.0,7.4,0.0,0.0
11/29/2019 10:00:00,1014.41,1014.72,29.0,20.9,10.0,50.0,11.1,0.0,0.0
11/29/2019 10:00:00,1013.71,1014.39,29.8,22.8,10.0,40.0,13.0,0.0,0.0
11/29/2019 10:00:00,1013.8,1014.29,29.5,20.4,10.0,310.0,1.9,0.0,0.0
11/29/2019 10:00:00,1013.63,1015.04,29.1,20.3,10.0,50.0,16.7,0.0,0.0
11/29/2019 10:00:00,1012.33,1014.03,26.9,20.3,10.0,40.0,25.9,0.0,0.0
11/29/2019 10:00:00,1007.77,1015.78,29.5,20.4,10.0,50.0,3.7,0.0,0.0
11/29/2019 10:00:00,1013.36,1013.64,29.5,20.4,4.0,0.0,0.0,0.0,0.0
11/29/2019 10:00:00,1010.35,1013.49,28.0,20.4,8.0,50.0,11.1,0.0,0.0
11/29/2019 10:00:00,1006.3,1013.23,29.3,21.4,10.0,60.0,7.4,0.0,0.0
11/29/2019 10:00:00,1009.17,1014.75,30.5,19.0,8.0,80.0,22.2,0.0,0.0
11/29/2019 10:00:00,1005.06,1014.23,33.8,21.1,8.0,110.0,11.1,0.0,0.0
11/29/2019 10:00:00,1013.85,1015.12,26.0,21.2,10.0,320.0,7.4,0.0,0.0
11/29/2019 10:00:00,1007.34,1007.77,28.6,21.9,11.0,350.0,22.2,0.01,0.01
11/29/2019 10:00:00,995.32,1007.56,27.6,21.5,10.0,20.0,9.3,0.0,0.0
11/29/2019 10:00:00,1013.28,1013.99,29.0,22.4,10.0,60.0,13.0,0.0,0.0
11/29/2019 10:00:00,1011.22,1013.64,31.0,23.0,8.0,330.0,7.4,0.0,0.0
11/29/2019 10:00:00,1012.59,1013.1,30.3,21.4,9.0,120.0,7.4,0.0,0.0
11/29/2019 10:00:00,1007.86,1012.97,31.4,20.8,16.0,40.0,3.7,0.0,0.0
11/29/2019 10:00:00,1013.07,1013.48,29.4,21.3,8.0,30.0,14.8,0.0,0.0
11/29/2019 10:00:00,1010.61,1013.38,29.0,21.6,10.0,50.0,7.4,0.0,0.0
11/29/2019 10:00:00,1012.54,1013.33,29.5,22.3,8.0,30.0,18.5,0.0,0.0
11/29/2019 10:00:00,1011.36,1011.81,32.0,20.8,10.0,60.0,13.0,0.0,0.0
11/29/2019 10:00:00,1011.52,1012.2,27.6,25.9,8.0,60.0,3.7,10.8,47.1
11/29/2019 10:00:00,1010.9,1012.43,27.4,25.4,8.0,70.0,5.6,0.0,51.2
11/29/2019 10:00:00,1009.7,1010.61,28.5,24.2,10.0,10.0,5.6,0.0,1.1
11/29/2019 10:00:00,1011.91,1012.61,26.3,24.7,8.0,40.0,9.3,0.2,29.3
11/29/2019 10:00:00,1011.52,1012.31,28.2,25.4,10.0,70.0,5.6,0.0,8.2
11/29/2019 10:00:00,1011.95,1012.58,28.2,25.5,10.0,340.0,7.4,7.2,29.8
11/29/2019 10:00:00,1011.86,1012.27,29.1,25.9,8.0,90.0,11.1,2.0,23.6
11/29/2019 10:00:00,1010.11,1014.38,25.0,24.3,6.0,0.0,0.0,0.4,15.4
11/29/2019 10:00:00,1010.26,1011.87,27.9,25.2,12.0,0.0,0.0,0.2,1.8
11/29/2019 10:00:00,1008.03,1011.51,28.0,24.4,8.0,50.0,11.1,0.0,16.3
11/29/2019 10:00:00,1010.19,1011.54,30.0,25.3,8.0,110.0,16.7,0.0,5.2
11/29/2019 10:00:00,1009.61,1010.49,30.2,23.9,10.0,90.0,9.3,0.0,49.8
11/29/2019 10:00:00,1007.75,1011.29,29.4,23.8,10.0,70.0,14.8,0.0,3.0
11/29/2019 10:00:00,1009.97,1010.41,31.4,24.4,10.0,0.0,0.0,0.0,19.6
11/29/2019 10:00:00,1009.42,1010.4,30.6,23.2,10.0,100.0,9.3,0.0,8.6
11/29/2019 10:00:00,1010.17,1010.98,30.4,25.9,10.0,50.0,9.3,0.0,6.2
11/29/2019 10:00:00,1009.06,1010.86,31.0,23.5,10.0,70.0,18.5,0.0,1.5
11/29/2019 10:00:00,1010.85,1011.6,30.5,23.9,10.0,110.0,13.0,0.0,0.7
11/29/2019 10:00:00,1007.64,1011.59,31.3,23.0,10.0,70.0,35.2,0.0,0.01
11/29/2019 10:00:00,1011.42,1012.1,30.1,23.4,10.0,70.0,9.3,0.0,4.5
11/29/2019 10:00:00,1009.98,1011.09,30.7,24.7,10.0,0.0,0.0,0.0,0.0
11/29/2019 10:00:00,1008.16,1011.05,31.5,24.7,11.0,80.0,13.0,0.0,0.2
11/29/2019 10:00:00,1010.29,1010.98,29.8,24.8,8.0,50.0,9.3,0.0,3.2
11/29/2019 10:00:00,1007.81,1011.95,27.2,24.5,6.0,80.0,3.7,0.01,2.4
11/29/2019 10:00:00,1009.53,1010.12,28.5,24.6,9.0,150.0,14.8,0.0,8.6
